<?xml version="1.0" encoding="UTF-8" standalone="no"?>
<!-- Created with Inkscape (http://www.inkscape.org/) -->

<svg
   xmlns:dc="http://purl.org/dc/elements/1.1/"
   xmlns:cc="http://creativecommons.org/ns#"
   xmlns:rdf="http://www.w3.org/1999/02/22-rdf-syntax-ns#"
   xmlns:svg="http://www.w3.org/2000/svg"
   xmlns="http://www.w3.org/2000/svg"
   xmlns:sodipodi="http://sodipodi.sourceforge.net/DTD/sodipodi-0.dtd"
   xmlns:inkscape="http://www.inkscape.org/namespaces/inkscape"
   width="593.75195"
   height="494.1496"
   id="svg2"
   sodipodi:version="0.32"
   inkscape:version="0.47 r22583"
   sodipodi:docname="ipkc-lenguajes.svg"
   inkscape:output_extension="org.inkscape.output.svg.inkscape"
   version="1.0"
   inkscape:export-filename="/home/cleto/repos/personal/uni/procesadores/trabajo/diagrama_general.png"
   inkscape:export-xdpi="90"
   inkscape:export-ydpi="90">
  <defs
     id="defs4">
    <linearGradient
       id="linearGradient7858">
      <stop
         style="stop-color:#f2f2f2;stop-opacity:1;"
         offset="0"
         id="stop7860" />
      <stop
         style="stop-color:#f2f2f2;stop-opacity:0;"
         offset="1"
         id="stop7862" />
    </linearGradient>
    <linearGradient
       id="linearGradient7798">
      <stop
         style="stop-color:#f9f9f9;stop-opacity:1"
         offset="0"
         id="stop7800" />
      <stop
         style="stop-color:#f2f2f2;stop-opacity:0;"
         offset="1"
         id="stop7802" />
    </linearGradient>
    <marker
       inkscape:stockid="Arrow2Lstart"
       orient="auto"
       refY="0"
       refX="0"
       id="Arrow2Lstart"
       style="overflow:visible">
      <path
         id="path3257"
         style="font-size:12px;fill-rule:evenodd;stroke-width:0.625;stroke-linejoin:round"
         d="M 8.7185878,4.0337352 -2.2072895,0.01601326 8.7185884,-4.0017078 c -1.7454984,2.3720609 -1.7354408,5.6174519 -6e-7,8.035443 z"
         transform="matrix(1.1,0,0,1.1,1.1,0)" />
    </marker>
    <marker
       inkscape:stockid="Arrow2Lend"
       orient="auto"
       refY="0"
       refX="0"
       id="Arrow2Lend"
       style="overflow:visible">
      <path
         id="path3260"
         style="font-size:12px;fill-rule:evenodd;stroke-width:0.625;stroke-linejoin:round"
         d="M 8.7185878,4.0337352 -2.2072895,0.01601326 8.7185884,-4.0017078 c -1.7454984,2.3720609 -1.7354408,5.6174519 -6e-7,8.035443 z"
         transform="matrix(-1.1,0,0,-1.1,-1.1,0)" />
    </marker>
    <inkscape:perspective
       sodipodi:type="inkscape:persp3d"
       inkscape:vp_x="0 : 526.18109 : 1"
       inkscape:vp_y="0 : 1000 : 0"
       inkscape:vp_z="744.09448 : 526.18109 : 1"
       inkscape:persp3d-origin="372.04724 : 350.78739 : 1"
       id="perspective10" />
    <inkscape:perspective
       id="perspective2927"
       inkscape:persp3d-origin="0.5 : 0.33333333 : 1"
       inkscape:vp_z="1 : 0.5 : 1"
       inkscape:vp_y="0 : 1000 : 0"
       inkscape:vp_x="0 : 0.5 : 1"
       sodipodi:type="inkscape:persp3d" />
    <inkscape:perspective
       id="perspective2967"
       inkscape:persp3d-origin="0.5 : 0.33333333 : 1"
       inkscape:vp_z="1 : 0.5 : 1"
       inkscape:vp_y="0 : 1000 : 0"
       inkscape:vp_x="0 : 0.5 : 1"
       sodipodi:type="inkscape:persp3d" />
    <marker
       inkscape:stockid="Arrow2Lend"
       orient="auto"
       refY="0"
       refX="0"
       id="Arrow2Lend-9"
       style="overflow:visible">
      <path
         id="path3260-9"
         style="font-size:12px;fill-rule:evenodd;stroke-width:0.625;stroke-linejoin:round"
         d="M 8.7185878,4.0337352 -2.2072895,0.01601326 8.7185884,-4.0017078 c -1.7454984,2.3720609 -1.7354408,5.6174519 -6e-7,8.035443 z"
         transform="matrix(-1.1,0,0,-1.1,-1.1,0)" />
    </marker>
  </defs>
  <sodipodi:namedview
     id="base"
     pagecolor="#ffffff"
     bordercolor="#666666"
     borderopacity="1.0"
     inkscape:pageopacity="0.0"
     inkscape:pageshadow="2"
     inkscape:zoom="1.4"
     inkscape:cx="268.37302"
     inkscape:cy="253.33967"
     inkscape:document-units="px"
     inkscape:current-layer="g5629"
     showgrid="false"
     inkscape:window-width="1672"
     inkscape:window-height="972"
     inkscape:window-x="0"
     inkscape:window-y="25"
     showguides="true"
     inkscape:guide-bbox="true"
     units="mm"
     inkscape:window-maximized="0" />
  <metadata
     id="metadata7">
    <rdf:RDF>
      <cc:Work
         rdf:about="">
        <dc:format>image/svg+xml</dc:format>
        <dc:type
           rdf:resource="http://purl.org/dc/dcmitype/StillImage" />
        <dc:title />
      </cc:Work>
    </rdf:RDF>
  </metadata>
  <g
     inkscape:label="Capa 1"
     inkscape:groupmode="layer"
     id="layer1"
     transform="translate(-99.357144,-220.85547)">
    <text
       xml:space="preserve"
       style="font-size:14.52281284px;font-style:normal;font-weight:normal;fill:#000000;fill-opacity:1;stroke:none;font-family:Bitstream Vera Sans"
       x="741.83411"
       y="177.71634"
       id="text7774"
       transform="matrix(0.76992232,0.63813762,-0.63813762,0.76992232,0,0)"><tspan
         sodipodi:role="line"
         id="tspan7776"
         x="741.83411"
         y="177.71634">python</tspan></text>
    <text
       xml:space="preserve"
       style="font-size:19.44282913px;font-style:normal;font-weight:normal;fill:#000000;fill-opacity:1;stroke:none;font-family:Bitstream Vera Sans"
       x="895.10718"
       y="57.460369"
       id="text5625"
       transform="matrix(0.76992232,0.63813762,-0.63813762,0.76992232,0,0)"><tspan
         sodipodi:role="line"
         id="tspan5627"
         x="895.10718"
         y="57.460369">c++</tspan></text>
    <g
       id="g5629"
       transform="translate(86.714282,30.428567)"
       style="fill:#ffffff;fill-opacity:1">
      <path
         transform="translate(375.71429,291.42857)"
         d="m 220,343.07648 c 0,24.06383 -19.50759,43.57143 -43.57143,43.57143 -24.06383,0 -43.57143,-19.5076 -43.57143,-43.57143 0,-24.06384 19.5076,-43.57143 43.57143,-43.57143 24.06384,0 43.57143,19.50759 43.57143,43.57143 z"
         sodipodi:ry="43.57143"
         sodipodi:rx="43.57143"
         sodipodi:cy="343.07648"
         sodipodi:cx="176.42857"
         id="path4563"
         style="fill:#ffffff;fill-opacity:1;stroke:#000000;stroke-width:1;stroke-linecap:butt;stroke-linejoin:round;stroke-miterlimit:4;stroke-opacity:1;stroke-dasharray:none;stroke-dashoffset:0"
         sodipodi:type="arc" />
      <text
         id="text5609"
         y="629.84656"
         x="552.07751"
         style="font-size:17.84948158px;font-style:normal;font-weight:normal;text-align:center;text-anchor:middle;fill:#000000;fill-opacity:1;stroke:none;font-family:Bitstream Vera Sans"
         xml:space="preserve"><tspan
           y="629.84656"
           x="552.07751"
           id="tspan5611"
           sodipodi:role="line">Other</tspan><tspan
           y="652.15839"
           x="552.07751"
           sodipodi:role="line"
           id="tspan7896">Backend</tspan></text>
    </g>
    <path
       style="fill:none;stroke:#000000;stroke-width:1px;stroke-linecap:butt;stroke-linejoin:miter;stroke-opacity:1;marker-end:url(#Arrow2Lend)"
       d="m 197.33928,279.13003 c 0.5373,-0.0442 45.69669,11.34879 75.02627,30.19434 29.00037,18.63402 60.7773,55.60924 60.7773,55.60924"
       id="path3234"
       sodipodi:nodetypes="czc" />
    <path
       sodipodi:nodetypes="czc"
       id="path4014"
       d="m 192.78571,534.48718 c 0.5373,-0.0442 47.59366,-8.35533 88.15127,-26.59138 39.96434,-17.9693 53.63445,-56.53361 53.63445,-56.53361"
       style="fill:none;stroke:#000000;stroke-width:1px;stroke-linecap:butt;stroke-linejoin:miter;stroke-opacity:1;marker-end:url(#Arrow2Lend)" />
    <path
       style="fill:none;stroke:#000000;stroke-width:1.00406981px;stroke-linecap:butt;stroke-linejoin:miter;stroke-opacity:1;marker-end:url(#Arrow2Lend)"
       d="m 387.78775,409.9336 109.45303,0.71429"
       id="path4016"
       sodipodi:nodetypes="cc" />
    <g
       id="g5672"
       style="fill:#ffffff;fill-opacity:1"
       transform="translate(6,-6)">
      <path
         transform="translate(-28.571428,-54.285714)"
         d="m 220,343.07648 c 0,24.06383 -19.50759,43.57143 -43.57143,43.57143 -24.06383,0 -43.57143,-19.5076 -43.57143,-43.57143 0,-24.06384 19.5076,-43.57143 43.57143,-43.57143 24.06384,0 43.57143,19.50759 43.57143,43.57143 z"
         sodipodi:ry="43.57143"
         sodipodi:rx="43.57143"
         sodipodi:cy="343.07648"
         sodipodi:cx="176.42857"
         id="path3204"
         style="fill:#ffffff;fill-opacity:1;stroke:#000000;stroke-width:1;stroke-linecap:butt;stroke-linejoin:round;stroke-miterlimit:4;stroke-opacity:1;stroke-dasharray:none;stroke-dashoffset:0"
         sodipodi:type="arc" />
      <text
         id="text4533"
         y="284.39923"
         x="147.03665"
         style="font-size:17.41306114px;font-style:normal;font-weight:normal;text-align:center;text-anchor:middle;fill:#000000;fill-opacity:1;stroke:none;font-family:Bitstream Vera Sans"
         xml:space="preserve"><tspan
           y="284.39923"
           x="147.03665"
           id="tspan4535"
           sodipodi:role="line">IcePick</tspan><tspan
           id="tspan4537"
           y="306.16556"
           x="147.03665"
           sodipodi:role="line">Parser</tspan></text>
    </g>
    <path
       transform="translate(-26.999999,191.85714)"
       d="m 220,343.07648 c 0,24.06383 -19.50759,43.57143 -43.57143,43.57143 -24.06383,0 -43.57143,-19.5076 -43.57143,-43.57143 0,-24.06384 19.5076,-43.57143 43.57143,-43.57143 24.06384,0 43.57143,19.50759 43.57143,43.57143 z"
       sodipodi:ry="43.57143"
       sodipodi:rx="43.57143"
       sodipodi:cy="343.07648"
       sodipodi:cx="176.42857"
       id="path3206"
       style="fill:#ffffff;fill-opacity:1;stroke:#000000;stroke-width:1;stroke-linecap:butt;stroke-linejoin:round;stroke-miterlimit:4;stroke-opacity:1;stroke-dasharray:none;stroke-dashoffset:0"
       sodipodi:type="arc" />
    <text
       xml:space="preserve"
       style="font-size:17.41306114px;font-style:normal;font-weight:normal;text-align:center;text-anchor:middle;fill:#000000;fill-opacity:1;stroke:none;font-family:Bitstream Vera Sans"
       x="148.58258"
       y="530.38904"
       id="text4539"><tspan
         sodipodi:role="line"
         id="tspan4541"
         x="148.58258"
         y="530.38904">SIS</tspan><tspan
         sodipodi:role="line"
         x="148.58258"
         y="552.15533"
         id="tspan4543">Parser</tspan></text>
    <path
       sodipodi:type="arc"
       style="fill:#ffffff;fill-opacity:1;stroke:#000000;stroke-width:1;stroke-linecap:butt;stroke-linejoin:round;stroke-miterlimit:4;stroke-opacity:1;stroke-dasharray:none;stroke-dashoffset:0"
       id="path3208"
       sodipodi:cx="176.42857"
       sodipodi:cy="343.07648"
       sodipodi:rx="43.57143"
       sodipodi:ry="43.57143"
       d="m 220,343.07648 c 0,24.06383 -19.50759,43.57143 -43.57143,43.57143 -24.06383,0 -43.57143,-19.5076 -43.57143,-43.57143 0,-24.06384 19.5076,-43.57143 43.57143,-43.57143 24.06384,0 43.57143,19.50759 43.57143,43.57143 z"
       transform="translate(167.42857,66.321433)" />
    <text
       xml:space="preserve"
       style="font-size:16.16114998px;font-style:normal;font-weight:normal;text-align:center;text-anchor:middle;fill:#000000;fill-opacity:1;stroke:none;font-family:Bitstream Vera Sans"
       x="343.83347"
       y="405.32211"
       id="text4545"><tspan
         sodipodi:role="line"
         id="tspan4547"
         x="343.83347"
         y="405.32211">Semantic</tspan><tspan
         sodipodi:role="line"
         x="343.83347"
         y="425.52356"
         id="tspan4549">Analyzer</tspan></text>
    <path
       sodipodi:type="arc"
       style="fill:#ffffff;fill-opacity:1;stroke:#000000;stroke-width:1;stroke-linecap:butt;stroke-linejoin:round;stroke-miterlimit:4;stroke-opacity:1;stroke-dasharray:none;stroke-dashoffset:0"
       id="path3212"
       sodipodi:cx="176.42857"
       sodipodi:cy="343.07648"
       sodipodi:rx="43.57143"
       sodipodi:ry="43.57143"
       d="m 220,343.07648 c 0,24.06383 -19.50759,43.57143 -43.57143,43.57143 -24.06383,0 -43.57143,-19.5076 -43.57143,-43.57143 0,-24.06384 19.5076,-43.57143 43.57143,-43.57143 24.06384,0 43.57143,19.50759 43.57143,43.57143 z"
       transform="translate(364.92857,66.321433)" />
    <text
       xml:space="preserve"
       style="font-size:16.16114998px;font-style:normal;font-weight:normal;text-align:center;text-anchor:middle;fill:#000000;fill-opacity:1;stroke:none;font-family:Bitstream Vera Sans"
       x="541.57806"
       y="405.32211"
       id="text4551"><tspan
         sodipodi:role="line"
         x="541.57806"
         y="405.32211"
         id="tspan4555">Symbol</tspan><tspan
         sodipodi:role="line"
         x="541.57806"
         y="425.52356"
         id="tspan4559">Table</tspan></text>
    <path
       style="fill:none;stroke:#000000;stroke-width:1px;stroke-linecap:butt;stroke-linejoin:miter;stroke-opacity:1;marker-start:url(#Arrow2Lstart);marker-end:url(#Arrow2Lend)"
       d="m 500.28572,428.86219 c -14.98938,0.66284 -56.11978,1.54483 -57.14285,18.92858 -1.01976,17.32727 0.63247,8.77383 0.71427,28.39285"
       id="path4561"
       sodipodi:nodetypes="czc" />
    <text
       xml:space="preserve"
       style="font-size:19.44282913px;font-style:normal;font-weight:normal;fill:#000000;fill-opacity:1;stroke:none;font-family:Bitstream Vera Sans"
       x="273.19376"
       y="71.854668"
       id="text5613"
       transform="matrix(0.76992232,0.63813762,-0.63813762,0.76992232,0,0)"><tspan
         sodipodi:role="line"
         id="tspan5615"
         x="273.19376"
         y="71.854668">c++</tspan></text>
    <text
       xml:space="preserve"
       style="font-size:19.44282913px;font-style:normal;font-weight:normal;fill:#000000;fill-opacity:1;stroke:none;font-family:Bitstream Vera Sans"
       x="428.39767"
       y="269.18445"
       id="text5617"
       transform="matrix(0.76992232,0.63813762,-0.63813762,0.76992232,0,0)"><tspan
         sodipodi:role="line"
         id="tspan5619"
         x="428.39767"
         y="269.18445">c++</tspan></text>
    <text
       xml:space="preserve"
       style="font-size:19.44282913px;font-style:normal;font-weight:normal;fill:#000000;fill-opacity:1;stroke:none;font-family:Bitstream Vera Sans"
       x="499.40939"
       y="47.045792"
       id="text5621"
       transform="matrix(0.76992232,0.63813762,-0.63813762,0.76992232,0,0)"><tspan
         sodipodi:role="line"
         id="tspan5623"
         x="499.40939"
         y="47.045792">c++</tspan></text>
    <path
       sodipodi:type="arc"
       style="fill:#ffffff;fill-opacity:1;stroke:#000000;stroke-width:3.5;stroke-linecap:butt;stroke-linejoin:round;stroke-miterlimit:4;stroke-opacity:1;stroke-dasharray:none;stroke-dashoffset:0"
       id="path5634"
       sodipodi:cx="176.42857"
       sodipodi:cy="343.07648"
       sodipodi:rx="43.57143"
       sodipodi:ry="43.57143"
       d="m 220,343.07648 c 0,24.06383 -19.50759,43.57143 -43.57143,43.57143 -24.06383,0 -43.57143,-19.5076 -43.57143,-43.57143 0,-24.06384 19.5076,-43.57143 43.57143,-43.57143 24.06384,0 43.57143,19.50759 43.57143,43.57143 z"
       transform="translate(268.5,177.57142)"
       inkscape:export-xdpi="90"
       inkscape:export-ydpi="90" />
    <g
       style="font-size:16.26805115px;font-style:normal;font-weight:normal;text-align:center;text-anchor:middle;fill:#000000;fill-opacity:1;stroke:none;font-family:Bitstream Vera Sans"
       id="text5636">
      <path
         d="m 434.71338,495.16554 0,1.36626 c -0.41306,-0.2277 -0.82877,-0.39716 -1.24711,-0.50838 -0.41306,-0.11649 -0.83142,-0.17474 -1.25506,-0.17475 -0.94791,10e-6 -1.684,0.30185 -2.20826,0.90554 -0.52426,0.59841 -0.78639,1.44041 -0.78639,2.526 0,1.0856 0.26213,1.93025 0.78639,2.53394 0.52426,0.5984 1.26035,0.8976 2.20826,0.8976 0.42364,0 0.842,-0.0556 1.25506,-0.16681 0.41834,-0.1165 0.83405,-0.28861 1.24711,-0.51632 l 0,1.35038 c -0.40777,0.19064 -0.83142,0.33362 -1.27094,0.42894 -0.43425,0.0953 -0.89761,0.14298 -1.39009,0.14298 -1.33979,0 -2.4042,-0.421 -3.19324,-1.263 -0.78905,-0.84199 -1.18357,-1.9779 -1.18357,-3.40771 0,-1.45099 0.39717,-2.59218 1.19151,-3.4236 0.79963,-0.8314 1.89317,-1.2471 3.28062,-1.24711 0.45012,10e-6 0.88965,0.0477 1.3186,0.14298 0.42893,0.09 0.84464,0.22772 1.24711,0.41306"
         id="path3683" />
      <path
         d="m 443.22074,493.52126 0,4.42446 4.42447,0 0,1.35038 -4.42447,0 0,4.42446 -1.33448,0 0,-4.42446 -4.42447,0 0,-1.35038 4.42447,0 0,-4.42446 1.33448,0"
         id="path3685" />
      <path
         d="m 456.85159,493.52126 0,4.42446 4.42447,0 0,1.35038 -4.42447,0 0,4.42446 -1.33449,0 0,-4.42446 -4.42446,0 0,-1.35038 4.42446,0 0,-4.42446 1.33449,0"
         id="path3687" />
      <path
         d="m 446.271,512.19615 1.35038,0 -4.13056,13.36872 -1.35038,0 4.13056,-13.36872"
         id="path3689" />
      <path
         d="m 419.36676,543.0562 0,4.71837 -1.46953,0 0,-12.28047 1.46953,0 0,1.35037 c 0.30714,-0.52955 0.69372,-0.92142 1.15974,-1.17562 0.4713,-0.25947 1.03263,-0.38921 1.68399,-0.38922 1.0803,10e-6 1.95672,0.42895 2.62926,1.28683 0.67783,0.85789 1.01675,1.98585 1.01676,3.38388 -1e-5,1.39804 -0.33893,2.526 -1.01676,3.38388 -0.67254,0.85789 -1.54896,1.28683 -2.62926,1.28683 -0.65136,0 -1.21269,-0.1271 -1.68399,-0.38128 -0.46602,-0.25949 -0.8526,-0.65401 -1.15974,-1.18357 m 4.97256,-3.10586 c -10e-6,-1.075 -0.22242,-1.917 -0.66724,-2.526 -0.43955,-0.61428 -1.04589,-0.92142 -1.81904,-0.92143 -0.77316,10e-6 -1.38215,0.30715 -1.82698,0.92143 -0.43954,0.609 -0.6593,1.451 -0.6593,2.526 0,1.07501 0.21976,1.91965 0.6593,2.53394 0.44483,0.60899 1.05382,0.91349 1.82698,0.91349 0.77315,0 1.37949,-0.3045 1.81904,-0.91349 0.44482,-0.61429 0.66723,-1.45893 0.66724,-2.53394"
         id="path3691" />
      <path
         d="m 431.98086,545.2168 c -0.41307,1.05912 -0.81553,1.75019 -1.2074,2.07323 -0.39188,0.32302 -0.91614,0.48454 -1.57279,0.48454 l -1.16768,0 0,-1.22328 0.85789,0 c 0.40246,0 0.7149,-0.0953 0.93732,-0.28596 0.22241,-0.19064 0.46865,-0.64077 0.73873,-1.35038 l 0.26213,-0.66724 -3.59835,-8.75361 1.54896,0 2.78019,6.9584 2.78018,-6.9584 1.54896,0 -3.90814,9.7227"
         id="path3693" />
      <path
         d="m 439.35232,532.9681 0,2.526 3.01054,0 0,1.1359 -3.01054,0 0,4.82958 c -1e-5,0.7255 0.098,1.19151 0.2939,1.39804 0.20123,0.20653 0.60634,0.30979 1.21534,0.30979 l 1.5013,0 0,1.22328 -1.5013,0 c -1.12797,0 -1.90642,-0.20918 -2.33536,-0.62753 -0.42894,-0.42364 -0.64341,-1.1915 -0.64341,-2.30358 l 0,-4.82958 -1.07236,0 0,-1.1359 1.07236,0 0,-2.526 1.46953,0"
         id="path3695" />
      <path
         d="m 451.68839,539.02096 0,5.36973 -1.46158,0 0,-5.32207 c -10e-6,-0.84199 -0.16417,-1.47216 -0.49249,-1.89052 -0.32833,-0.41835 -0.82082,-0.62752 -1.47747,-0.62753 -0.78905,10e-6 -1.41128,0.25155 -1.86669,0.75462 -0.45543,0.50309 -0.68314,1.18887 -0.68314,2.05734 l 0,5.02816 -1.46952,0 0,-12.35991 1.46952,0 0,4.84547 c 0.34951,-0.53485 0.75992,-0.93466 1.23123,-1.19945 0.4766,-0.26477 1.02469,-0.39716 1.64428,-0.39717 1.02204,10e-6 1.7952,0.31774 2.31947,0.9532 0.52425,0.63019 0.78638,1.55956 0.78639,2.78813"
         id="path3697" />
      <path
         d="m 458.06693,536.5188 c -0.78375,0 -1.40333,0.30715 -1.85875,0.92143 -0.45542,0.609 -0.68313,1.4457 -0.68313,2.51011 0,1.06441 0.22506,1.90376 0.67519,2.51805 0.45541,0.60899 1.07764,0.91349 1.86669,0.91349 0.77845,0 1.39538,-0.30714 1.85081,-0.92143 0.45541,-0.61429 0.68312,-1.45099 0.68313,-2.51011 -10e-6,-1.05382 -0.22772,-1.88787 -0.68313,-2.50217 -0.45543,-0.61957 -1.07236,-0.92937 -1.85081,-0.92937 m 0,-1.23917 c 1.27094,10e-6 2.26915,0.41306 2.99466,1.23917 0.72548,0.82611 1.08823,1.96996 1.08824,3.43154 -1e-5,1.45629 -0.36276,2.60013 -1.08824,3.43154 -0.72551,0.82611 -1.72372,1.23917 -2.99466,1.23917 -1.27624,0 -2.2771,-0.41306 -3.0026,-1.23917 -0.7202,-0.83141 -1.0803,-1.97525 -1.0803,-3.43154 0,-1.46158 0.3601,-2.60543 1.0803,-3.43154 0.7255,-0.82611 1.72636,-1.23916 3.0026,-1.23917"
         id="path3699" />
      <path
         d="m 471.95991,539.02096 0,5.36973 -1.46158,0 0,-5.32207 c -1e-5,-0.84199 -0.16418,-1.47216 -0.49249,-1.89052 -0.32834,-0.41835 -0.82083,-0.62752 -1.47747,-0.62753 -0.78905,10e-6 -1.41128,0.25155 -1.8667,0.75462 -0.45542,0.50309 -0.68313,1.18887 -0.68313,2.05734 l 0,5.02816 -1.46953,0 0,-8.89659 1.46953,0 0,1.38215 c 0.3495,-0.53485 0.75991,-0.93466 1.23122,-1.19945 0.4766,-0.26477 1.0247,-0.39716 1.64428,-0.39717 1.02205,10e-6 1.7952,0.31774 2.31947,0.9532 0.52426,0.63019 0.78639,1.55956 0.7864,2.78813"
         id="path3701" />
    </g>
    <g
       id="g7890"
       transform="translate(-107.21429,30.428568)"
       style="fill:#ffffff;fill-opacity:1">
      <path
         transform="translate(375.71429,291.42857)"
         d="m 220,343.07648 c 0,24.06383 -19.50759,43.57143 -43.57143,43.57143 -24.06383,0 -43.57143,-19.5076 -43.57143,-43.57143 0,-24.06384 19.5076,-43.57143 43.57143,-43.57143 24.06384,0 43.57143,19.50759 43.57143,43.57143 z"
         sodipodi:ry="43.57143"
         sodipodi:rx="43.57143"
         sodipodi:cy="343.07648"
         sodipodi:cx="176.42857"
         id="path5680"
         style="fill:#ffffff;fill-opacity:1;stroke:#000000;stroke-width:1;stroke-linecap:butt;stroke-linejoin:round;stroke-miterlimit:4;stroke-opacity:1;stroke-dasharray:none;stroke-dashoffset:0"
         sodipodi:type="arc" />
      <text
         id="text5682"
         y="629.84656"
         x="552.07751"
         style="font-size:17.84948158px;font-style:normal;font-weight:normal;text-align:center;text-anchor:middle;fill:#000000;fill-opacity:1;stroke:none;font-family:Bitstream Vera Sans"
         xml:space="preserve"><tspan
           y="629.84656"
           x="552.07751"
           id="tspan5684"
           sodipodi:role="line">FSM</tspan><tspan
           y="652.15839"
           x="552.07751"
           sodipodi:role="line"
           id="tspan7888">Backend</tspan></text>
    </g>
    <path
       id="path5686"
       d="m 445.53765,620.6611 0,-56.03641"
       style="fill:none;stroke:#000000;stroke-width:1;stroke-linecap:butt;stroke-linejoin:miter;stroke-miterlimit:4;stroke-opacity:1;stroke-dasharray:none;marker-start:url(#Arrow2Lstart);marker-end:url(#Arrow2Lend)" />
    <path
       style="fill:none;stroke:#000000;stroke-width:1px;stroke-linecap:butt;stroke-linejoin:miter;stroke-opacity:1;marker-start:url(#Arrow2Lstart);marker-end:url(#Arrow2Lend)"
       d="M 631.71429,620.6479 562.42857,447.79075"
       id="path6730" />
    <text
       xml:space="preserve"
       style="font-size:19.44282913px;font-style:normal;font-weight:normal;fill:#000000;fill-opacity:1;stroke:none;font-family:Bitstream Vera Sans"
       x="651.09119"
       y="69.961555"
       id="text7782"
       transform="matrix(0.76992232,0.63813762,-0.63813762,0.76992232,0,0)"><tspan
         sodipodi:role="line"
         id="tspan7784"
         x="651.09119"
         y="69.961555">c++</tspan></text>
    <text
       xml:space="preserve"
       style="font-size:19.44282913px;font-style:normal;font-weight:normal;fill:#000000;fill-opacity:1;stroke:none;font-family:Bitstream Vera Sans"
       x="659.24023"
       y="-78.00544"
       id="text7788"
       transform="matrix(0.76992232,0.63813762,-0.63813762,0.76992232,0,0)"><tspan
         sodipodi:role="line"
         id="tspan7790"
         x="659.24023"
         y="-78.00544">c++</tspan></text>
    <g
       transform="translate(6,114.52326)"
       id="g5672-3"
       style="fill:#ffffff;fill-opacity:1">
      <path
         transform="translate(-28.571428,-54.285714)"
         d="m 220,343.07648 c 0,24.06383 -19.50759,43.57143 -43.57143,43.57143 -24.06383,0 -43.57143,-19.5076 -43.57143,-43.57143 0,-24.06384 19.5076,-43.57143 43.57143,-43.57143 24.06384,0 43.57143,19.50759 43.57143,43.57143 z"
         sodipodi:ry="43.57143"
         sodipodi:rx="43.57143"
         sodipodi:cy="343.07648"
         sodipodi:cx="176.42857"
         id="path3204-0"
         style="fill:#ffffff;fill-opacity:1;stroke:#000000;stroke-width:1;stroke-linecap:butt;stroke-linejoin:round;stroke-miterlimit:4;stroke-opacity:1;stroke-dasharray:none;stroke-dashoffset:0"
         sodipodi:type="arc" />
      <text
         id="text4533-3"
         y="284.39923"
         x="147.03665"
         style="font-size:17.41306114px;font-style:normal;font-weight:normal;text-align:center;text-anchor:middle;fill:#000000;fill-opacity:1;stroke:none;font-family:Bitstream Vera Sans"
         xml:space="preserve"><tspan
           y="284.39923"
           x="147.03665"
           id="tspan4535-0"
           sodipodi:role="line">Slice</tspan><tspan
           id="tspan4537-9"
           y="306.16556"
           x="147.03665"
           sodipodi:role="line">Parser</tspan></text>
    </g>
    <text
       xml:space="preserve"
       style="font-size:19.44282913px;font-style:normal;font-weight:normal;fill:#000000;fill-opacity:1;stroke:none;font-family:Bitstream Vera Sans"
       x="350.10419"
       y="164.64824"
       id="text5613-2"
       transform="matrix(0.76992232,0.63813762,-0.63813762,0.76992232,0,0)"><tspan
         sodipodi:role="line"
         id="tspan5615-5"
         x="350.10419"
         y="164.64824">c++</tspan></text>
    <path
       style="fill:none;stroke:#000000;stroke-width:1px;stroke-linecap:butt;stroke-linejoin:miter;stroke-opacity:1;marker-end:url(#Arrow2Lend)"
       d="m 198.08731,407.6769 c 57.4241,12.47122 54.02695,14.08288 100.625,4.19644"
       id="path3234-1"
       sodipodi:nodetypes="cc" />
  </g>
</svg>
